<svg width="21" height="21" viewBox="0 0 21 21" fill="none" xmlns="http://www.w3.org/2000/svg">
<path d="M7.10488 8.12874L10.4999 11.5237L13.8949 8.12874C14.2361 7.78749 14.7874 7.78749 15.1286 8.12874C15.4699 8.46999 15.4699 9.02124 15.1286 9.36249L11.1124 13.3787C10.7711 13.72 10.2199 13.72 9.87863 13.3787L5.86238 9.36249C5.52113 9.02124 5.52113 8.46999 5.86238 8.12874C6.20363 7.79624 6.76363 7.78749 7.10488 8.12874Z" fill="#E1C935"/>
</svg>
