<svg width="34" height="34" viewBox="0 0 34 34" fill="none" xmlns="http://www.w3.org/2000/svg">
<g clip-path="url(#clip0_65_1041)">
<path d="M30.1604 5.83666L23.6579 12.3392L25.9104 14.5917C26.8029 15.4842 26.1654 17.0142 24.9045 17.0142H18.4162C17.637 17.0142 16.9995 16.3767 16.9995 15.5975V9.08082C16.9995 7.81999 18.5295 7.18249 19.422 8.07499L21.6745 10.3275L28.177 3.82499C28.7295 3.27249 29.622 3.27249 30.1745 3.82499C30.7129 4.39166 30.7129 5.28416 30.1604 5.83666ZM5.8362 30.1608L12.3387 23.6583L14.5912 25.9108C15.4837 26.8033 17.0137 26.1658 17.0137 24.905V18.4167C17.0137 17.6375 16.3762 17 15.597 17H9.08036C7.81953 17 7.18203 18.53 8.07453 19.4225L10.327 21.675L3.82453 28.1775C3.27203 28.73 3.27203 29.6225 3.82453 30.175C4.3912 30.7133 5.2837 30.7133 5.8362 30.1608Z" fill="black"/>
</g>
<defs>
<clipPath id="clip0_65_1041">
<rect width="34" height="34" fill="white"/>
</clipPath>
</defs>
</svg>
