<svg width="30" height="30" viewBox="0 0 30 30" fill="none" xmlns="http://www.w3.org/2000/svg">
<path d="M11.6127 19.8501L16.4627 15.0001L11.6127 10.1501C11.1252 9.6626 11.1252 8.8751 11.6127 8.3876C12.1002 7.9001 12.8877 7.9001 13.3752 8.3876L19.1127 14.1251C19.6002 14.6126 19.6002 15.4001 19.1127 15.8876L13.3752 21.6251C12.8877 22.1126 12.1002 22.1126 11.6127 21.6251C11.1377 21.1376 11.1252 20.3376 11.6127 19.8501Z" fill="black"/>
</svg>
