<svg width="69" height="69" viewBox="0 0 69 69" fill="none" xmlns="http://www.w3.org/2000/svg">
<path d="M17.25 0C14.8781 0 12.9375 1.94062 12.9375 4.3125V64.6875C12.9375 67.0594 14.8781 69 17.25 69H60.375C62.7469 69 64.6875 67.0594 64.6875 64.6875V17.25L47.4375 0H17.25Z" fill="#E2E5E7"/>
<path d="M51.75 17.25H64.6875L47.4375 0V12.9375C47.4375 15.3094 49.3781 17.25 51.75 17.25Z" fill="#B0B7BD"/>
<path d="M64.6875 30.1875L51.75 17.25H64.6875V30.1875Z" fill="#CAD1D8"/>
<path d="M53.9062 58.2188H12.9375V60.375H53.9062C55.0922 60.375 56.0625 59.4047 56.0625 58.2188V56.0625C56.0625 57.2484 55.0922 58.2188 53.9062 58.2188Z" fill="#CAD1D8"/>
<path d="M56.0625 56.0625C56.0625 57.2484 55.0922 58.2188 53.9062 58.2188H6.46875C5.28281 58.2188 4.3125 57.2484 4.3125 56.0625V34.5C4.3125 33.3141 5.28281 32.3438 6.46875 32.3438H53.9062C55.0922 32.3438 56.0625 33.3141 56.0625 34.5V56.0625Z" fill="#2375F0"/>
<path d="M12.3223 52C11.77 52 11.3223 51.5523 11.3223 51V41.8485C11.3223 41.2962 11.77 40.8485 12.3223 40.8485H12.903C13.4553 40.8485 13.903 41.2962 13.903 41.8485V48.8971C13.903 49.4494 14.3508 49.8971 14.903 49.8971H18.4947C19.047 49.8971 19.4947 50.3449 19.4947 50.8971V51C19.4947 51.5523 19.047 52 18.4947 52H12.3223Z" fill="white"/>
<path d="M21.9367 52C21.3844 52 20.9367 51.5523 20.9367 51V41.8485C20.9367 41.2962 21.3844 40.8485 21.9367 40.8485H22.5175C23.0698 40.8485 23.5175 41.2962 23.5175 41.8485V51C23.5175 51.5523 23.0698 52 22.5175 52H21.9367Z" fill="white"/>
<path d="M27.164 52C26.6117 52 26.164 51.5523 26.164 51V41.8485C26.164 41.2962 26.6117 40.8485 27.164 40.8485H27.8253C28.125 40.8485 28.4088 40.9829 28.5988 41.2147L34.4327 48.334C34.6106 48.5512 34.4561 48.8776 34.1753 48.8776V48.8776C33.9916 48.8776 33.8426 48.7286 33.8426 48.5449V41.8485C33.8426 41.2962 34.2903 40.8485 34.8426 40.8485H35.3915C35.9438 40.8485 36.3915 41.2962 36.3915 41.8485V51C36.3915 51.5523 35.9438 52 35.3915 52H34.7454C34.4462 52 34.1626 51.866 33.9727 51.6347L28.1237 44.5142C27.9455 44.2973 28.0998 43.9709 28.3805 43.9709V43.9709C28.5641 43.9709 28.7129 44.1197 28.7129 44.3033V51C28.7129 51.5523 28.2652 52 27.7129 52H27.164Z" fill="white"/>
<path d="M42.949 47.7714C42.3416 48.4055 41.2703 48.0048 41.2281 47.1277L41.217 46.8987C41.2039 46.6261 41.3027 46.3601 41.4905 46.1622L46.2376 41.1601C46.4264 40.9611 46.6886 40.8485 46.9629 40.8485H47.1065C47.9798 40.8485 48.4336 41.8894 47.8391 42.5292L44.5897 46.026L43.156 47.5553L42.949 47.7714ZM40.0299 52C39.4776 52 39.0299 51.5523 39.0299 51V41.8485C39.0299 41.2962 39.4776 40.8485 40.0299 40.8485H40.5948C41.1471 40.8485 41.5948 41.2962 41.5948 41.8485V51C41.5948 51.5523 41.1471 52 40.5948 52H40.0299ZM47.1353 52C46.835 52 46.5506 51.865 46.3606 51.6324L43.2427 47.8133C42.9279 47.4276 42.9447 46.8692 43.2821 46.5031L43.589 46.1701C44.0056 45.7181 44.7276 45.7455 45.1088 46.2277L48.391 50.3799C48.9093 51.0355 48.4423 52 47.6065 52H47.1353Z" fill="white"/>
</svg>
